Lab05/tasks/work/mbmult_tb.vcd
$date
  Thu Oct 27 12:46:58 2022
$end
$version
  GHDL v0
$end
$timescale
  1 fs
$end
$scope module standard $end
$upscope $end
$scope module textio $end
$upscope $end
$scope module std_logic_1164 $end
$upscope $end
$scope module numeric_std $end
$upscope $end
$scope module casts $end
$upscope $end
$scope module types $end
$upscope $end
$scope module functions $end
$upscope $end
$scope module mbmult_tb $end
$var reg 8 ! a[7:0] $end
$var reg 8 " b[7:0] $end
$var reg 16 # p[15:0] $end
$var reg 16 $ p1[15:0] $end
$var reg 16 % p2[15:0] $end
$var reg 1 & u $end
$scope module mult $end
$var reg 8 ' a[7:0] $end
$var reg 8 ( b[7:0] $end
$var reg 1 ) u $end
$var reg 16 * p[15:0] $end
$var reg 18 + prod[17:0] $end
$var reg 9 , ai[8:0] $end
$var reg 9 - bi[8:0] $end
$upscope $end
$scope module mult1 $end
$var reg 8 . a[7:0] $end
$var reg 8 / b[7:0] $end
$var reg 16 0 p[15:0] $end
$upscope $end
$upscope $end
$enddefinitions $end
#0
b00000011 !
b00000001 "
b0000000000000011 #
b0000000000000011 $
bUUUUUUUUUUUUUUUU %
0&
b00000011 '
b00000001 (
0)
b0000000000000011 *
b000000000000000011 +
b000000011 ,
b000000001 -
b00000011 .
b00000001 /
b0000000000000011 0
#10000000
b00000010 "
b0000000000000110 #
b0000000000000110 $
b00000010 (
b0000000000000110 *
b000000000000000110 +
b000000010 -
b00000010 /
b0000000000000110 0
#20000000
b00000011 "
b0000000000001001 #
b1111111100001001 $
b00000011 (
b0000000000001001 *
b000000000000001001 +
b000000011 -
b00000011 /
b1111111100001001 0
#30000000
b00000100 "
b0000000000001100 #
b0000000000001100 $
b00000100 (
b0000000000001100 *
b000000000000001100 +
b000000100 -
b00000100 /
b0000000000001100 0
#40000000
b00000101 "
b0000000000001111 #
b0000000000001111 $
b00000101 (
b0000000000001111 *
b000000000000001111 +
b000000101 -
b00000101 /
b0000000000001111 0
#50000000
b00000110 "
b0000000000010010 #
b0000000000010010 $
b00000110 (
b0000000000010010 *
b000000000000010010 +
b000000110 -
b00000110 /
b0000000000010010 0
#60000000
b00000111 "
b0000000000010101 #
b1111111100010101 $
b00000111 (
b0000000000010101 *
b000000000000010101 +
b000000111 -
b00000111 /
b1111111100010101 0
#70000000
b00001000 "
b0000000000011000 #
b0000000000011000 $
b00001000 (
b0000000000011000 *
b000000000000011000 +
b000001000 -
b00001000 /
b0000000000011000 0
#80000000
b00001001 "
b0000000000011011 #
b0000000000011011 $
b00001001 (
b0000000000011011 *
b000000000000011011 +
b000001001 -
b00001001 /
b0000000000011011 0
#90000000
b00001010 "
b0000000000011110 #
b1111110000011110 $
b00001010 (
b0000000000011110 *
b000000000000011110 +
b000001010 -
b00001010 /
b1111110000011110 0
#100000000
b00001011 "
b0000000000100001 #
b1111101100100001 $
b00001011 (
b0000000000100001 *
b000000000000100001 +
b000001011 -
b00001011 /
b1111101100100001 0
#110000000
b00001100 "
b0000000000100100 #
b1111110000100100 $
b00001100 (
b0000000000100100 *
b000000000000100100 +
b000001100 -
b00001100 /
b1111110000100100 0
#120000000
b00001101 "
b0000000000100111 #
b1111110000100111 $
b00001101 (
b0000000000100111 *
b000000000000100111 +
b000001101 -
b00001101 /
b1111110000100111 0
#130000000
b00001110 "
b0000000000101010 #
b0000000000101010 $
b00001110 (
b0000000000101010 *
b000000000000101010 +
b000001110 -
b00001110 /
b0000000000101010 0
#140000000
b00001111 "
b0000000000101101 #
b1111111100101101 $
b00001111 (
b0000000000101101 *
b000000000000101101 +
b000001111 -
b00001111 /
b1111111100101101 0
#150000000
b00010000 "
b0000000000110000 #
b0000000000110000 $
b00010000 (
b0000000000110000 *
b000000000000110000 +
b000010000 -
b00010000 /
b0000000000110000 0
#160000000
b00010001 "
b0000000000110011 #
b0000000000110011 $
b00010001 (
b0000000000110011 *
b000000000000110011 +
b000010001 -
b00010001 /
b0000000000110011 0
#170000000
b00010010 "
b0000000000110110 #
b0000000000110110 $
b00010010 (
b0000000000110110 *
b000000000000110110 +
b000010010 -
b00010010 /
b0000000000110110 0
#180000000
b00010011 "
b0000000000111001 #
b1111111100111001 $
b00010011 (
b0000000000111001 *
b000000000000111001 +
b000010011 -
b00010011 /
b1111111100111001 0
#190000000
b00010100 "
b0000000000111100 #
b0000000000111100 $
b00010100 (
b0000000000111100 *
b000000000000111100 +
b000010100 -
b00010100 /
b0000000000111100 0
#200000000
b00010101 "
b0000000000111111 #
b0000000000111111 $
b00010101 (
b0000000000111111 *
b000000000000111111 +
b000010101 -
b00010101 /
b0000000000111111 0
#210000000
b00010110 "
b0000000001000010 #
b0000000001000010 $
b00010110 (
b0000000001000010 *
b000000000001000010 +
b000010110 -
b00010110 /
b0000000001000010 0
#220000000
b00010111 "
b0000000001000101 #
b1111111101000101 $
b00010111 (
b0000000001000101 *
b000000000001000101 +
b000010111 -
b00010111 /
b1111111101000101 0
#230000000
b00011000 "
b0000000001001000 #
b0000000001001000 $
b00011000 (
b0000000001001000 *
b000000000001001000 +
b000011000 -
b00011000 /
b0000000001001000 0
#240000000
b00011001 "
b0000000001001011 #
b0000000001001011 $
b00011001 (
b0000000001001011 *
b000000000001001011 +
b000011001 -
b00011001 /
b0000000001001011 0
#250000000
b00011010 "
b0000000001001110 #
b1111110001001110 $
b00011010 (
b0000000001001110 *
b000000000001001110 +
b000011010 -
b00011010 /
b1111110001001110 0
#260000000
b00011011 "
b0000000001010001 #
b1111101101010001 $
b00011011 (
b0000000001010001 *
b000000000001010001 +
b000011011 -
b00011011 /
b1111101101010001 0
#270000000
b00011100 "
b0000000001010100 #
b1111110001010100 $
b00011100 (
b0000000001010100 *
b000000000001010100 +
b000011100 -
b00011100 /
b1111110001010100 0
#280000000
b00011101 "
b0000000001010111 #
b1111110001010111 $
b00011101 (
b0000000001010111 *
b000000000001010111 +
b000011101 -
b00011101 /
b1111110001010111 0
#290000000
b00011110 "
b0000000001011010 #
b0000000001011010 $
b00011110 (
b0000000001011010 *
b000000000001011010 +
b000011110 -
b00011110 /
b0000000001011010 0
#300000000
b00011111 "
b0000000001011101 #
b1111111101011101 $
b00011111 (
b0000000001011101 *
b000000000001011101 +
b000011111 -
b00011111 /
b1111111101011101 0
#310000000
b00100000 "
b0000000001100000 #
b0000000001100000 $
b00100000 (
b0000000001100000 *
b000000000001100000 +
b000100000 -
b00100000 /
b0000000001100000 0
#320000000
b00100001 "
b0000000001100011 #
b0000000001100011 $
b00100001 (
b0000000001100011 *
b000000000001100011 +
b000100001 -
b00100001 /
b0000000001100011 0
#330000000
b00100010 "
b0000000001100110 #
b0000000001100110 $
b00100010 (
b0000000001100110 *
b000000000001100110 +
b000100010 -
b00100010 /
b0000000001100110 0
#340000000
b00100011 "
b0000000001101001 #
b1111111101101001 $
b00100011 (
b0000000001101001 *
b000000000001101001 +
b000100011 -
b00100011 /
b1111111101101001 0
#350000000
b00100100 "
b0000000001101100 #
b0000000001101100 $
b00100100 (
b0000000001101100 *
b000000000001101100 +
b000100100 -
b00100100 /
b0000000001101100 0
#360000000
b00100101 "
b0000000001101111 #
b0000000001101111 $
b00100101 (
b0000000001101111 *
b000000000001101111 +
b000100101 -
b00100101 /
b0000000001101111 0
#370000000
b00100110 "
b0000000001110010 #
b0000000001110010 $
b00100110 (
b0000000001110010 *
b000000000001110010 +
b000100110 -
b00100110 /
b0000000001110010 0
#380000000
b00100111 "
b0000000001110101 #
b1111111101110101 $
b00100111 (
b0000000001110101 *
b000000000001110101 +
b000100111 -
b00100111 /
b1111111101110101 0
#390000000
b00101000 "
b0000000001111000 #
b1111000001111000 $
b00101000 (
b0000000001111000 *
b000000000001111000 +
b000101000 -
b00101000 /
b1111000001111000 0
#400000000
b00101001 "
b0000000001111011 #
b1111000001111011 $
b00101001 (
b0000000001111011 *
b000000000001111011 +
b000101001 -
b00101001 /
b1111000001111011 0
#410000000
b00101010 "
b0000000001111110 #
b1110110001111110 $
b00101010 (
b0000000001111110 *
b000000000001111110 +
b000101010 -
b00101010 /
b1110110001111110 0
#420000000
b00101011 "
b0000000010000001 #
b1110101110000001 $
b00101011 (
b0000000010000001 *
b000000000010000001 +
b000101011 -
b00101011 /
b1110101110000001 0
#430000000
b00101100 "
b0000000010000100 #
b1110110010000100 $
b00101100 (
b0000000010000100 *
b000000000010000100 +
b000101100 -
b00101100 /
b1110110010000100 0
#440000000
b00101101 "
b0000000010000111 #
b1110110010000111 $
b00101101 (
b0000000010000111 *
b000000000010000111 +
b000101101 -
b00101101 /
b1110110010000111 0
#450000000
b00101110 "
b0000000010001010 #
b1111000010001010 $
b00101110 (
b0000000010001010 *
b000000000010001010 +
b000101110 -
b00101110 /
b1111000010001010 0
#460000000
b00101111 "
b0000000010001101 #
b1110111110001101 $
b00101111 (
b0000000010001101 *
b000000000010001101 +
b000101111 -
b00101111 /
b1110111110001101 0
#470000000
b00110000 "
b0000000010010000 #
b1111000010010000 $
b00110000 (
b0000000010010000 *
b000000000010010000 +
b000110000 -
b00110000 /
b1111000010010000 0
#480000000
b00110001 "
b0000000010010011 #
b1111000010010011 $
b00110001 (
b0000000010010011 *
b000000000010010011 +
b000110001 -
b00110001 /
b1111000010010011 0
#490000000
b00110010 "
b0000000010010110 #
b1111000010010110 $
b00110010 (
b0000000010010110 *
b000000000010010110 +
b000110010 -
b00110010 /
b1111000010010110 0
#500000000
b00110011 "
b0000000010011001 #
b1110111110011001 $
b00110011 (
b0000000010011001 *
b000000000010011001 +
b000110011 -
b00110011 /
b1110111110011001 0
